[
  {
    "id": 1,
    "name": "Item 1",
    "selected": false
  },
  {
    "id": 2,
    "name": "Item 2",
    "selected": false
  },
  {
    "id": 3,
    "name": "Item 3",
    "selected": false
  }
]
